S_01_01_conv_4.wav
S_01_02_conv_4.wav
S_01_03_conv_4.wav
S_01_04_conv_4.wav
S_01_05_conv_4.wav
S_01_06_conv_4.wav
S_01_07_conv_4.wav
S_01_08_conv_4.wav
S_01_09_conv_4.wav
S_01_10_conv_4.wav
S_02_01_conv_4.wav
S_02_02_conv_4.wav
S_02_03_conv_4.wav
S_02_04_conv_4.wav
S_02_05_conv_4.wav
S_02_06_conv_4.wav
S_02_07_conv_4.wav
S_02_08_conv_4.wav
S_02_09_conv_4.wav
S_02_10_conv_4.wav
S_03_01_conv_4.wav
S_03_02_conv_4.wav
S_03_03_conv_4.wav
S_03_04_conv_4.wav
S_03_05_conv_4.wav
S_03_06_conv_4.wav
S_03_07_conv_4.wav
S_03_08_conv_4.wav
S_03_09_conv_4.wav
S_03_10_conv_4.wav
S_04_01_conv_4.wav
S_04_02_conv_4.wav
S_04_03_conv_4.wav
S_04_04_conv_4.wav
S_04_05_conv_4.wav
S_04_06_conv_4.wav
S_04_07_conv_4.wav
S_04_08_conv_4.wav
S_04_09_conv_4.wav
S_04_10_conv_4.wav
S_05_01_conv_4.wav
S_05_02_conv_4.wav
S_05_03_conv_4.wav
S_05_04_conv_4.wav
S_05_05_conv_4.wav
S_05_06_conv_4.wav
S_05_07_conv_4.wav
S_05_08_conv_4.wav
S_05_09_conv_4.wav
S_05_10_conv_4.wav
S_06_01_conv_4.wav
S_06_02_conv_4.wav
S_06_03_conv_4.wav
S_06_04_conv_4.wav
S_06_05_conv_4.wav
S_06_06_conv_4.wav
S_06_07_conv_4.wav
S_06_08_conv_4.wav
S_06_09_conv_4.wav
S_06_10_conv_4.wav
S_07_01_conv_4.wav
S_07_02_conv_4.wav
S_07_03_conv_4.wav
S_07_04_conv_4.wav
S_07_05_conv_4.wav
S_07_06_conv_4.wav
S_07_07_conv_4.wav
S_07_08_conv_4.wav
S_07_09_conv_4.wav
S_07_10_conv_4.wav
S_08_01_conv_4.wav
S_08_02_conv_4.wav
S_08_03_conv_4.wav
S_08_04_conv_4.wav
S_08_05_conv_4.wav
S_08_06_conv_4.wav
S_08_07_conv_4.wav
S_08_08_conv_4.wav
S_08_09_conv_4.wav
S_08_10_conv_4.wav
S_09_01_conv_4.wav
S_09_02_conv_4.wav
S_09_03_conv_4.wav
S_09_04_conv_4.wav
S_09_05_conv_4.wav
S_09_06_conv_4.wav
S_09_07_conv_4.wav
S_09_08_conv_4.wav
S_09_09_conv_4.wav
S_09_10_conv_4.wav
S_10_01_conv_4.wav
S_10_02_conv_4.wav
S_10_03_conv_4.wav
S_10_04_conv_4.wav
S_10_05_conv_4.wav
S_10_06_conv_4.wav
S_10_07_conv_4.wav
S_10_08_conv_4.wav
S_10_09_conv_4.wav
S_10_10_conv_4.wav
S_11_01_conv_4.wav
S_11_02_conv_4.wav
S_11_03_conv_4.wav
S_11_04_conv_4.wav
S_11_05_conv_4.wav
S_11_06_conv_4.wav
S_11_07_conv_4.wav
S_11_08_conv_4.wav
S_11_09_conv_4.wav
S_11_10_conv_4.wav
S_12_01_conv_4.wav
S_12_02_conv_4.wav
S_12_03_conv_4.wav
S_12_04_conv_4.wav
S_12_05_conv_4.wav
S_12_06_conv_4.wav
S_12_07_conv_4.wav
S_12_08_conv_4.wav
S_12_09_conv_4.wav
S_12_10_conv_4.wav
S_13_01_conv_4.wav
S_13_02_conv_4.wav
S_13_03_conv_4.wav
S_13_04_conv_4.wav
S_13_05_conv_4.wav
S_13_06_conv_4.wav
S_13_07_conv_4.wav
S_13_08_conv_4.wav
S_13_09_conv_4.wav
S_13_10_conv_4.wav
S_14_01_conv_4.wav
S_14_02_conv_4.wav
S_14_03_conv_4.wav
S_14_04_conv_4.wav
S_14_05_conv_4.wav
S_14_06_conv_4.wav
S_14_07_conv_4.wav
S_14_08_conv_4.wav
S_14_09_conv_4.wav
S_14_10_conv_4.wav
S_15_01_conv_4.wav
S_15_02_conv_4.wav
S_15_03_conv_4.wav
S_15_04_conv_4.wav
S_15_05_conv_4.wav
S_15_06_conv_4.wav
S_15_07_conv_4.wav
S_15_08_conv_4.wav
S_15_09_conv_4.wav
S_15_10_conv_4.wav
S_16_01_conv_4.wav
S_16_02_conv_4.wav
S_16_03_conv_4.wav
S_16_04_conv_4.wav
S_16_05_conv_4.wav
S_16_06_conv_4.wav
S_16_07_conv_4.wav
S_16_08_conv_4.wav
S_16_09_conv_4.wav
S_16_10_conv_4.wav
S_17_01_conv_4.wav
S_17_02_conv_4.wav
S_17_03_conv_4.wav
S_17_04_conv_4.wav
S_17_05_conv_4.wav
S_17_06_conv_4.wav
S_17_07_conv_4.wav
S_17_08_conv_4.wav
S_17_09_conv_4.wav
S_17_10_conv_4.wav
S_18_01_conv_4.wav
S_18_02_conv_4.wav
S_18_03_conv_4.wav
S_18_04_conv_4.wav
S_18_05_conv_4.wav
S_18_06_conv_4.wav
S_18_07_conv_4.wav
S_18_08_conv_4.wav
S_18_09_conv_4.wav
S_18_10_conv_4.wav
S_19_01_conv_4.wav
S_19_02_conv_4.wav
S_19_03_conv_4.wav
S_19_04_conv_4.wav
S_19_05_conv_4.wav
S_19_06_conv_4.wav
S_19_07_conv_4.wav
S_19_08_conv_4.wav
S_19_09_conv_4.wav
S_19_10_conv_4.wav
S_20_01_conv_4.wav
S_20_02_conv_4.wav
S_20_03_conv_4.wav
S_20_04_conv_4.wav
S_20_05_conv_4.wav
S_20_06_conv_4.wav
S_20_07_conv_4.wav
S_20_08_conv_4.wav
S_20_09_conv_4.wav
S_20_10_conv_4.wav
S_21_01_conv_4.wav
S_21_02_conv_4.wav
S_21_03_conv_4.wav
S_21_04_conv_4.wav
S_21_05_conv_4.wav
S_21_06_conv_4.wav
S_21_07_conv_4.wav
S_21_08_conv_4.wav
S_21_09_conv_4.wav
S_21_10_conv_4.wav
S_22_01_conv_4.wav
S_22_02_conv_4.wav
S_22_03_conv_4.wav
S_22_04_conv_4.wav
S_22_05_conv_4.wav
S_22_06_conv_4.wav
S_22_07_conv_4.wav
S_22_08_conv_4.wav
S_22_09_conv_4.wav
S_22_10_conv_4.wav
S_23_01_conv_4.wav
S_23_02_conv_4.wav
S_23_03_conv_4.wav
S_23_04_conv_4.wav
S_23_05_conv_4.wav
S_23_06_conv_4.wav
S_23_07_conv_4.wav
S_23_08_conv_4.wav
S_23_09_conv_4.wav
S_23_10_conv_4.wav
S_24_01_conv_4.wav
S_24_02_conv_4.wav
S_24_03_conv_4.wav
S_24_04_conv_4.wav
S_24_05_conv_4.wav
S_24_06_conv_4.wav
S_24_07_conv_4.wav
S_24_08_conv_4.wav
S_24_09_conv_4.wav
S_24_10_conv_4.wav
S_25_01_conv_4.wav
S_25_02_conv_4.wav
S_25_03_conv_4.wav
S_25_04_conv_4.wav
S_25_05_conv_4.wav
S_25_06_conv_4.wav
S_25_07_conv_4.wav
S_25_08_conv_4.wav
S_25_09_conv_4.wav
S_25_10_conv_4.wav
S_26_01_conv_4.wav
S_26_02_conv_4.wav
S_26_03_conv_4.wav
S_26_04_conv_4.wav
S_26_05_conv_4.wav
S_26_06_conv_4.wav
S_26_07_conv_4.wav
S_26_08_conv_4.wav
S_26_09_conv_4.wav
S_26_10_conv_4.wav
S_27_01_conv_4.wav
S_27_02_conv_4.wav
S_27_03_conv_4.wav
S_27_04_conv_4.wav
S_27_05_conv_4.wav
S_27_06_conv_4.wav
S_27_07_conv_4.wav
S_27_08_conv_4.wav
S_27_09_conv_4.wav
S_27_10_conv_4.wav
S_28_01_conv_4.wav
S_28_02_conv_4.wav
S_28_03_conv_4.wav
S_28_04_conv_4.wav
S_28_05_conv_4.wav
S_28_06_conv_4.wav
S_28_07_conv_4.wav
S_28_08_conv_4.wav
S_28_09_conv_4.wav
S_28_10_conv_4.wav
S_29_01_conv_4.wav
S_29_02_conv_4.wav
S_29_03_conv_4.wav
S_29_04_conv_4.wav
S_29_05_conv_4.wav
S_29_06_conv_4.wav
S_29_07_conv_4.wav
S_29_08_conv_4.wav
S_29_09_conv_4.wav
S_29_10_conv_4.wav
S_30_01_conv_4.wav
S_30_02_conv_4.wav
S_30_03_conv_4.wav
S_30_04_conv_4.wav
S_30_05_conv_4.wav
S_30_06_conv_4.wav
S_30_07_conv_4.wav
S_30_08_conv_4.wav
S_30_09_conv_4.wav
S_30_10_conv_4.wav
S_31_01_conv_4.wav
S_31_02_conv_4.wav
S_31_03_conv_4.wav
S_31_04_conv_4.wav
S_31_05_conv_4.wav
S_31_06_conv_4.wav
S_31_07_conv_4.wav
S_31_08_conv_4.wav
S_31_09_conv_4.wav
S_31_10_conv_4.wav
S_32_01_conv_4.wav
S_32_02_conv_4.wav
S_32_03_conv_4.wav
S_32_04_conv_4.wav
S_32_05_conv_4.wav
S_32_06_conv_4.wav
S_32_07_conv_4.wav
S_32_08_conv_4.wav
S_32_09_conv_4.wav
S_32_10_conv_4.wav
S_33_01_conv_4.wav
S_33_02_conv_4.wav
S_33_03_conv_4.wav
S_33_04_conv_4.wav
S_33_05_conv_4.wav
S_33_06_conv_4.wav
S_33_07_conv_4.wav
S_33_08_conv_4.wav
S_33_09_conv_4.wav
S_33_10_conv_4.wav
S_34_01_conv_4.wav
S_34_02_conv_4.wav
S_34_03_conv_4.wav
S_34_04_conv_4.wav
S_34_05_conv_4.wav
S_34_06_conv_4.wav
S_34_07_conv_4.wav
S_34_08_conv_4.wav
S_34_09_conv_4.wav
S_34_10_conv_4.wav
S_35_01_conv_4.wav
S_35_02_conv_4.wav
S_35_03_conv_4.wav
S_35_04_conv_4.wav
S_35_05_conv_4.wav
S_35_06_conv_4.wav
S_35_07_conv_4.wav
S_35_08_conv_4.wav
S_35_09_conv_4.wav
S_35_10_conv_4.wav
S_36_01_conv_4.wav
S_36_02_conv_4.wav
S_36_03_conv_4.wav
S_36_04_conv_4.wav
S_36_05_conv_4.wav
S_36_06_conv_4.wav
S_36_07_conv_4.wav
S_36_08_conv_4.wav
S_36_09_conv_4.wav
S_36_10_conv_4.wav
S_37_01_conv_4.wav
S_37_02_conv_4.wav
S_37_03_conv_4.wav
S_37_04_conv_4.wav
S_37_05_conv_4.wav
S_37_06_conv_4.wav
S_37_07_conv_4.wav
S_37_08_conv_4.wav
S_37_09_conv_4.wav
S_37_10_conv_4.wav
S_38_01_conv_4.wav
S_38_02_conv_4.wav
S_38_03_conv_4.wav
S_38_04_conv_4.wav
S_38_05_conv_4.wav
S_38_06_conv_4.wav
S_38_07_conv_4.wav
S_38_08_conv_4.wav
S_38_09_conv_4.wav
S_38_10_conv_4.wav
S_39_01_conv_4.wav
S_39_02_conv_4.wav
S_39_03_conv_4.wav
S_39_04_conv_4.wav
S_39_05_conv_4.wav
S_39_06_conv_4.wav
S_39_07_conv_4.wav
S_39_08_conv_4.wav
S_39_09_conv_4.wav
S_39_10_conv_4.wav
S_40_01_conv_4.wav
S_40_02_conv_4.wav
S_40_03_conv_4.wav
S_40_04_conv_4.wav
S_40_05_conv_4.wav
S_40_06_conv_4.wav
S_40_07_conv_4.wav
S_40_08_conv_4.wav
S_40_09_conv_4.wav
S_40_10_conv_4.wav
S_41_01_conv_4.wav
S_41_02_conv_4.wav
S_41_03_conv_4.wav
S_41_04_conv_4.wav
S_41_05_conv_4.wav
S_41_06_conv_4.wav
S_41_07_conv_4.wav
S_41_08_conv_4.wav
S_41_09_conv_4.wav
S_41_10_conv_4.wav
S_42_01_conv_4.wav
S_42_02_conv_4.wav
S_42_03_conv_4.wav
S_42_04_conv_4.wav
S_42_05_conv_4.wav
S_42_06_conv_4.wav
S_42_07_conv_4.wav
S_42_08_conv_4.wav
S_42_09_conv_4.wav
S_42_10_conv_4.wav
S_43_01_conv_4.wav
S_43_02_conv_4.wav
S_43_03_conv_4.wav
S_43_04_conv_4.wav
S_43_05_conv_4.wav
S_43_06_conv_4.wav
S_43_07_conv_4.wav
S_43_08_conv_4.wav
S_43_09_conv_4.wav
S_43_10_conv_4.wav
S_44_01_conv_4.wav
S_44_02_conv_4.wav
S_44_03_conv_4.wav
S_44_04_conv_4.wav
S_44_05_conv_4.wav
S_44_06_conv_4.wav
S_44_07_conv_4.wav
S_44_08_conv_4.wav
S_44_09_conv_4.wav
S_44_10_conv_4.wav
S_45_01_conv_4.wav
S_45_02_conv_4.wav
S_45_03_conv_4.wav
S_45_04_conv_4.wav
S_45_05_conv_4.wav
S_45_06_conv_4.wav
S_45_07_conv_4.wav
S_45_08_conv_4.wav
S_45_09_conv_4.wav
S_45_10_conv_4.wav
S_46_01_conv_4.wav
S_46_02_conv_4.wav
S_46_03_conv_4.wav
S_46_04_conv_4.wav
S_46_05_conv_4.wav
S_46_06_conv_4.wav
S_46_07_conv_4.wav
S_46_08_conv_4.wav
S_46_09_conv_4.wav
S_46_10_conv_4.wav
S_47_01_conv_4.wav
S_47_02_conv_4.wav
S_47_03_conv_4.wav
S_47_04_conv_4.wav
S_47_05_conv_4.wav
S_47_06_conv_4.wav
S_47_07_conv_4.wav
S_47_08_conv_4.wav
S_47_09_conv_4.wav
S_47_10_conv_4.wav
S_48_01_conv_4.wav
S_48_02_conv_4.wav
S_48_03_conv_4.wav
S_48_04_conv_4.wav
S_48_05_conv_4.wav
S_48_06_conv_4.wav
S_48_07_conv_4.wav
S_48_08_conv_4.wav
S_48_09_conv_4.wav
S_48_10_conv_4.wav
S_49_01_conv_4.wav
S_49_02_conv_4.wav
S_49_03_conv_4.wav
S_49_04_conv_4.wav
S_49_05_conv_4.wav
S_49_06_conv_4.wav
S_49_07_conv_4.wav
S_49_08_conv_4.wav
S_49_09_conv_4.wav
S_49_10_conv_4.wav
S_50_01_conv_4.wav
S_50_02_conv_4.wav
S_50_03_conv_4.wav
S_50_04_conv_4.wav
S_50_05_conv_4.wav
S_50_06_conv_4.wav
S_50_07_conv_4.wav
S_50_08_conv_4.wav
S_50_09_conv_4.wav
S_50_10_conv_4.wav
S_51_01_conv_4.wav
S_51_02_conv_4.wav
S_51_03_conv_4.wav
S_51_04_conv_4.wav
S_51_05_conv_4.wav
S_51_06_conv_4.wav
S_51_07_conv_4.wav
S_51_08_conv_4.wav
S_51_09_conv_4.wav
S_51_10_conv_4.wav
S_52_01_conv_4.wav
S_52_02_conv_4.wav
S_52_03_conv_4.wav
S_52_04_conv_4.wav
S_52_05_conv_4.wav
S_52_06_conv_4.wav
S_52_07_conv_4.wav
S_52_08_conv_4.wav
S_52_09_conv_4.wav
S_52_10_conv_4.wav
S_53_01_conv_4.wav
S_53_02_conv_4.wav
S_53_03_conv_4.wav
S_53_04_conv_4.wav
S_53_05_conv_4.wav
S_53_06_conv_4.wav
S_53_07_conv_4.wav
S_53_08_conv_4.wav
S_53_09_conv_4.wav
S_53_10_conv_4.wav
S_54_01_conv_4.wav
S_54_02_conv_4.wav
S_54_03_conv_4.wav
S_54_04_conv_4.wav
S_54_05_conv_4.wav
S_54_06_conv_4.wav
S_54_07_conv_4.wav
S_54_08_conv_4.wav
S_54_09_conv_4.wav
S_54_10_conv_4.wav
S_55_01_conv_4.wav
S_55_02_conv_4.wav
S_55_03_conv_4.wav
S_55_04_conv_4.wav
S_55_05_conv_4.wav
S_55_06_conv_4.wav
S_55_07_conv_4.wav
S_55_08_conv_4.wav
S_55_09_conv_4.wav
S_55_10_conv_4.wav
S_56_01_conv_4.wav
S_56_02_conv_4.wav
S_56_03_conv_4.wav
S_56_04_conv_4.wav
S_56_05_conv_4.wav
S_56_06_conv_4.wav
S_56_07_conv_4.wav
S_56_08_conv_4.wav
S_56_09_conv_4.wav
S_56_10_conv_4.wav
S_57_01_conv_4.wav
S_57_02_conv_4.wav
S_57_03_conv_4.wav
S_57_04_conv_4.wav
S_57_05_conv_4.wav
S_57_06_conv_4.wav
S_57_07_conv_4.wav
S_57_08_conv_4.wav
S_57_09_conv_4.wav
S_57_10_conv_4.wav
S_58_01_conv_4.wav
S_58_02_conv_4.wav
S_58_03_conv_4.wav
S_58_04_conv_4.wav
S_58_05_conv_4.wav
S_58_06_conv_4.wav
S_58_07_conv_4.wav
S_58_08_conv_4.wav
S_58_09_conv_4.wav
S_58_10_conv_4.wav
S_59_01_conv_4.wav
S_59_02_conv_4.wav
S_59_03_conv_4.wav
S_59_04_conv_4.wav
S_59_05_conv_4.wav
S_59_06_conv_4.wav
S_59_07_conv_4.wav
S_59_08_conv_4.wav
S_59_09_conv_4.wav
S_59_10_conv_4.wav
S_60_01_conv_4.wav
S_60_02_conv_4.wav
S_60_03_conv_4.wav
S_60_04_conv_4.wav
S_60_05_conv_4.wav
S_60_06_conv_4.wav
S_60_07_conv_4.wav
S_60_08_conv_4.wav
S_60_09_conv_4.wav
S_60_10_conv_4.wav
